Chap_02
…
prison <- prison %>%
  mutate(Quarter = yearquarter(Date)) %>%
  select(-Date) %>%
  as_tsibble(key = c(State, Gender, Legal, Indigenous),
             index = Quarter)

prison

## # A tsibble: 3,072 x 6 [1Q]
## # Key:       State, Gender, Legal, Indigenous [64]
##    State Gender Legal    Indigenous Count Quarter
##    <chr> <chr>  <chr>    <chr>      <dbl>   <qtr>
##  1 ACT   Female Remanded ATSI           0 2005 Q1
##  2 ACT   Female Remanded ATSI           1 2005 Q2
##  3 ACT   Female Remanded ATSI           0 2005 Q3
##  4 ACT   Female Remanded ATSI           0 2005 Q4
##  5 ACT   Female Remanded ATSI           1 2006 Q1
##  6 ACT   Female Remanded ATSI           1 2006 Q2
##  7 ACT   Female Remanded ATSI           1 2006 Q3
##  8 ACT   Female Remanded ATSI           0 2006 Q4
##  9 ACT   Female Remanded ATSI           0 2007 Q1
## 10 ACT   Female Remanded ATSI           1 2007 Q2
## # ... with 3,062 more rows
…
melsyd_economy

## # A tsibble: 282 x 4 [1W]
## # Key:       Airports, Class [1]
##        Week Airports Class   Passengers
##      <week> <chr>    <chr>        <dbl>
##  1 1987 W26 MEL-SYD  Economy       20.2
##  2 1987 W27 MEL-SYD  Economy       20.2
##  3 1987 W28 MEL-SYD  Economy       20.0
##  4 1987 W29 MEL-SYD  Economy       21.0
##  5 1987 W30 MEL-SYD  Economy       20.5
##  6 1987 W31 MEL-SYD  Economy       20.8
##  7 1987 W32 MEL-SYD  Economy       21.1
##  8 1987 W33 MEL-SYD  Economy       20.7
##  9 1987 W34 MEL-SYD  Economy       22.1
## 10 1987 W35 MEL-SYD  Economy       20.8
## # ... with 272 more rows
…
#blue lines - means

##tourism

holidays <- tourism %>%
  filter(Purpose == "Holiday") %>% 
  group_by(State) %>%
  summarise(Trips = sum(Trips))
  
  holidays

## # A tsibble: 640 x 3 [1Q]
## # Key:       State [8]
##    State Quarter Trips
##    <chr>   <qtr> <dbl>
##  1 ACT   1998 Q1  196.
##  2 ACT   1998 Q2  127.
##  3 ACT   1998 Q3  111.
##  4 ACT   1998 Q4  170.
##  5 ACT   1999 Q1  108.
##  6 ACT   1999 Q2  125.
##  7 ACT   1999 Q3  178.
##  8 ACT   1999 Q4  218.
##  9 ACT   2000 Q1  158.
## 10 ACT   2000 Q2  155.
## # ... with 630 more rows
…
The black lines doesnt touch the blue dashed lines and the ACF lies
within 2/T where T is the length of the time. T=50 in this case =
0.28. If its more than 5%, it could not be white noise. 2.10 Exercise
13

dgoog <- gafa_stock %>%
  filter(Symbol == "GOOG", year(Date) >= 2018) %>%
  mutate(trading_day = row_number()) %>%
  update_tsibble(index = trading_day, regular = TRUE) %>%
  mutate(diff = difference(Close))

dgoog

## # A tsibble: 251 x 10 [1]
## # Key:       Symbol [1]
##    Symbol Date        Open  High   Low Close Adj_Close Volume trading_day   diff
##    <chr>  <date>     <dbl> <dbl> <dbl> <dbl>     <dbl>  <dbl>       <int>  <dbl>
##  1 GOOG   2018-01-02 1048. 1067. 1045. 1065      1065  1.24e6           1 NA    
##  2 GOOG   2018-01-03 1064. 1086. 1063. 1082.     1082. 1.43e6           2 17.5  
##  3 GOOG   2018-01-04 1088  1094. 1084. 1086.     1086. 1.00e6           3  3.92 
##  4 GOOG   2018-01-05 1094  1104. 1092  1102.     1102. 1.28e6           4 15.8  
##  5 GOOG   2018-01-08 1102. 1111. 1102. 1107.     1107. 1.05e6           5  4.71 
##  6 GOOG   2018-01-09 1109. 1111. 1101. 1106.     1106. 9.02e5           6 -0.680
##  7 GOOG   2018-01-10 1097. 1105. 1096. 1103.     1103. 1.04e6           7 -3.65 
##  8 GOOG   2018-01-11 1106. 1107. 1100. 1106.     1106. 9.78e5           8  2.91 
##  9 GOOG   2018-01-12 1102. 1124. 1101. 1122.     1122. 1.72e6           9 16.7  
## 10 GOOG   2018-01-16 1133. 1140. 1118. 1122.     1122. 1.58e6          10 -0.5  
## # ... with 241 more rows
…
